module babys-server

go 1.17

require (
	github.com/go-playground/validator/v10 v10.10.1
	github.com/go-sql-driver/mysql v1.6.0
	github.com/golang-jwt/jwt v3.2.2+incompatible
	github.com/jmoiron/sqlx v1.3.5
	github.com/labstack/echo/v4 v4.7.2
	golang.org/x/crypto v0.0.0-20220411220226-7b82a4e95df4
)

require (
	github.com/go-playground/locales v0.14.0 // indirect
	github.com/go-playground/universal-translator v0.18.0 // indirect
	github.com/labstack/gommon v0.3.1 // indirect
	github.com/leodido/go-urn v1.2.1 // indirect
	github.com/mattn/go-colorable v0.1.11 // indirect
	github.com/mattn/go-isatty v0.0.14 // indirect
	github.com/valyala/bytebufferpool v1.0.0 // indirect
	github.com/valyala/fasttemplate v1.2.1 // indirect
	golang.org/x/net v0.0.0-20211112202133-69e39bad7dc2 // indirect
	golang.org/x/sys v0.0.0-20211103235746-7861aae1554b // indirect
	golang.org/x/text v0.3.7 // indirect
	golang.org/x/time v0.0.0-20201208040808-7e3f01d25324 // indirect
)
